                                                                                                                                          _____________________   
                                                                                                                                     ____/   |                 \____
                                                                                                                                 ___/        |   |                  \___
                                                                                                                              __/            |   |   |
                                                                                                                            _/               |   |   |   |
                                                                                                                          _/                 |   |   |   |
                                                                                                                        _/                   |   |   |   |
                                                                                                                      _/                     |   |   |   |
                                                                                                                    _/                       |   |   |   |
                                                                                                                  _/                         |   |   |   |
                                                                                                                 /                           |   |   |   |
                                                                                                               /                             |   |   |   |
                                                                                                              /                              |   |   |   |
                                                                                                             /                               |   |   |   |    
                                                                                                            /                                |   |___|___|________
((|))                                                                                                      /                                 |  _|   |   |        \_.
__i__                                                                                                     /                                  |_/ |   |   |           \_
     \                                                                                                   /                                 _/|   |   |   |             \_
      \________.________.________.________.________.________.________.________.________.________.______./_____.______.____._____.____.__._/__|___|___|___|________________\______________
       ________|________|________|________|________|________|________|________|________|________|______|______|______|____|_____|____|__||_______|___|___|_________________________________________
({O})  ________|________|________|________|________|________|________|________|________|________|______|______|______|____|_____|____|__||___________|___|____________________________________________
       ________|________|________|________|________|________|________|________|________|________|______|______|______|____|_____|____|__||_______________|_______________
({O})  ________|________|________|________|________|________|________|________|________|________|______|______|______|____|_____|____|__||__________________________________________________________
       ________|________|________|________|________|________|________|________|________|________|______|______|______|____|_____|____|__|_\_________________________________________________________
      /                                                                                                 \                                   \_                           /
_____/                                                                                                   \                                    \_                       _/
  i                                                                                                       \                                     \__                 _./
((|))                                                                                                      \                                       \_______________/
                                                                                                            \                                    
                                                                                                             \
                                                                                                              \_
                                                                                                                \_
                                                                                                                  \_
                                                                                                                    \_
                                                                                                                      \_
                                                                                                                        \__   
                                                                                                                           \